[
   {
      "id":0,
      "name":" Swift J045106.8-694803",
      "rightAscension":72.778,
      "declination":-69.801,
      "orbitalPeriod":0.0,
      "maxiFluxChangeProb":0.0,
      "maxiAverage":0.0,
      "maxiData":"NO DATA ",
      "swiftBatFluxChangeProb":0.0,
      "swiftBatAverageFlux":1.3,
      "swiftBatData":"Apr 10th",
      "fermiGBMFluxChangeProb":0.0,
      "fermiGBMAveragePulsedFlux":0.0,
      "fermiGBMData":"NO DATA ",
      "combinetPlot":"PLOT",
      "collectedData":{
         "maxi":{
               "fluxChangeProbability":{
                  "value":0.0,
                  "action":null
               },
               "averageFlux":0.0,
               "date":"NO DATA "
         },
         "swiftBat":{
            "date":"Apr 10th",
            "fluxChangeProbability":{
               "value":0.0,
               "action":"increment"
            },
            "averageFlux":1.3
         },
         "fermiGbm":{
            "date":"NO DATA ",
            "fluxChangeProbability":{
               "value":0.0,
               "action":null
            },
            "averageFlux":0.0
         }
      },
      "Value":null,
      "Created":0
   },
   {
      "id":0,
      "name":" LS V +44 17",
      "rightAscension":70.247,
      "declination":44.53,
      "orbitalPeriod":155.0,
      "maxiFluxChangeProb":0.0,
      "maxiAverage":3.4,
      "maxiData":"Apr 9th",
      "swiftBatFluxChangeProb":0.0,
      "swiftBatAverageFlux":3.3,
      "swiftBatData":"Apr 10th",
      "fermiGBMFluxChangeProb":0.0,
      "fermiGBMAveragePulsedFlux":0.043,
      "fermiGBMData":"Apr 8th",
      "combinetPlot":"PLOT",
      "collectedData":{
         "maxi":{
            "fluxChangeProbability":{
               "value":0.0,
               "action":"increment"
            },
            "averageFlux":3.4,
            "date":"Apr 9th"
         },
         "swiftBat":{
            "date":"Apr 10th",
            "fluxChangeProbability":{
               "value":0.0,
               "action":"increment"
            },
            "averageFlux":3.3
         },
         "fermiGbm":{
            "date":"Apr 8th",
            "fluxChangeProbability":{
               "value":0.0,
               "action":"increment"
            },
            "averageFlux":0.043
         }
      },
      "Value":null,
      "Created":0
   },
   {
      "id":0,
      "name":" 4U 0115+63",
      "rightAscension":19.633,
      "declination":63.74,
      "orbitalPeriod":24.3,
      "maxiFluxChangeProb":0.0,
      "maxiAverage":-2.7,
      "maxiData":"Mar 28th",
      "swiftBatFluxChangeProb":0.0,
      "swiftBatAverageFlux":3.8,
      "swiftBatData":"Apr 10th",
      "fermiGBMFluxChangeProb":0.0,
      "fermiGBMAveragePulsedFlux":0.059,
      "fermiGBMData":"Apr 9th",
      "combinetPlot":"PLOT",
      "collectedData":{
         "maxi":{
            "fluxChangeProbability":{
               "value":0.0,
               "action":"increment"
            },
            "averageFlux":-2.7,
            "date":"Mar 28th"
         },
         "swiftBat":{
            "date":"Apr 10th",
            "fluxChangeProbability":{
               "value":0.0,
               "action":"increment"
            },
            "averageFlux":3.8
         },
         "fermiGbm":{
            "date":"Apr 9th",
            "fluxChangeProbability":{
               "value":0.0,
               "action":"increment"
            },
            "averageFlux":0.059
         }
      },
      "Value":null,
      "Created":0
   },
   {
      "id":0,
      "name":" MXB 0656-072",
      "rightAscension":104.6,
      "declination":-7.2,
      "orbitalPeriod":0.0,
      "maxiFluxChangeProb":0.0,
      "maxiAverage":-1.1,
      "maxiData":"Apr 9th",
      "swiftBatFluxChangeProb":0.0,
      "swiftBatAverageFlux":-6.7,
      "swiftBatData":"Apr 10th",
      "fermiGBMFluxChangeProb":0.0,
      "fermiGBMAveragePulsedFlux":0.061,
      "fermiGBMData":"Apr 8th",
      "combinetPlot":"PLOT",
      "collectedData":{
         "maxi":{
            "fluxChangeProbability":{
               "value":0.0,
               "action":"increment"
            },
            "averageFlux":-1.1,
            "date":"Apr 9th"
         },
         "swiftBat":{
            "date":"Apr 10th",
            "fluxChangeProbability":{
               "value":0.0,
               "action":"increment"
            },
            "averageFlux":-6.7
         },
         "fermiGbm":{
            "date":"Apr 8th",
            "fluxChangeProbability":{
               "value":0.0,
               "action":"increment"
            },
            "averageFlux":0.061
         }
      },
      "Value":null,
      "Created":0
   },
   {
      "id":0,
      "name":" EXO 2030+375",
      "rightAscension":308.064,
      "declination":37.637,
      "orbitalPeriod":46.03,
      "maxiFluxChangeProb":0.0,
      "maxiAverage":9.3,
      "maxiData":"Apr 1st",
      "swiftBatFluxChangeProb":0.0,
      "swiftBatAverageFlux":-6.7,
      "swiftBatData":"Apr 10th",
      "fermiGBMFluxChangeProb":0.0,
      "fermiGBMAveragePulsedFlux":0.077,
      "fermiGBMData":"Apr 8th",
      "combinetPlot":"PLOT",
      "collectedData":{
         "maxi":{
            "fluxChangeProbability":{
               "value":0.0,
               "action":"increment"
            },
            "averageFlux":9.3,
            "date":"Apr 1st"
         },
         "swiftBat":{
            "date":"Apr 10th",
            "fluxChangeProbability":{
               "value":0.0,
               "action":"increment"
            },
            "averageFlux":-6.7
         },
         "fermiGbm":{
            "date":"Apr 8th",
            "fluxChangeProbability":{
               "value":0.0,
               "action":"increment"
            },
            "averageFlux":0.077
         }
      },
      "Value":null,
      "Created":0
   },
   {
      "id":0,
      "name":" V 0332+53",
      "rightAscension":53.75,
      "declination":53.173,
      "orbitalPeriod":34.25,
      "maxiFluxChangeProb":0.0,
      "maxiAverage":13.6,
      "maxiData":"Apr 9th",
      "swiftBatFluxChangeProb":0.0,
      "swiftBatAverageFlux":1.7,
      "swiftBatData":"Apr 10th",
      "fermiGBMFluxChangeProb":0.0,
      "fermiGBMAveragePulsedFlux":0.05,
      "fermiGBMData":"Apr 9th",
      "combinetPlot":"PLOT",
      "collectedData":{
         "maxi":{
            "fluxChangeProbability":{
               "value":0.0,
               "action":"increment"
            },
            "averageFlux":13.6,
            "date":"Apr 9th"
         },
         "swiftBat":{
            "date":"Apr 10th",
            "fluxChangeProbability":{
               "value":0.0,
               "action":"increment"
            },
            "averageFlux":1.7
         },
         "fermiGbm":{
            "date":"Apr 9th",
            "fluxChangeProbability":{
               "value":0.0,
               "action":"increment"
            },
            "averageFlux":0.05
         }
      },
      "Value":null,
      "Created":0
   },
   {
      "id":0,
      "name":" XTE J1946+274",
      "rightAscension":296.417,
      "declination":27.356,
      "orbitalPeriod":169.2,
      "maxiFluxChangeProb":0.0,
      "maxiAverage":-2.5,
      "maxiData":"Apr 2nd",
      "swiftBatFluxChangeProb":0.0,
      "swiftBatAverageFlux":-2.3,
      "swiftBatData":"Apr 10th",
      "fermiGBMFluxChangeProb":0.0,
      "fermiGBMAveragePulsedFlux":0.077,
      "fermiGBMData":"Apr 8th",
      "combinetPlot":"PLOT",
      "collectedData":{
         "maxi":{
            "fluxChangeProbability":{
               "value":0.0,
               "action":"increment"
            },
            "averageFlux":-2.5,
            "date":"Apr 2nd"
         },
         "swiftBat":{
            "date":"Apr 10th",
            "fluxChangeProbability":{
               "value":0.0,
               "action":"increment"
            },
            "averageFlux":-2.3
         },
         "fermiGbm":{
            "date":"Apr 8th",
            "fluxChangeProbability":{
               "value":0.0,
               "action":"increment"
            },
            "averageFlux":0.077
         }
      },
      "Value":null,
      "Created":0
   },
   {
      "id":0,
      "name":" Swift J1843.5-0343",
      "rightAscension":280.899,
      "declination":-3.73,
      "orbitalPeriod":0.0,
      "maxiFluxChangeProb":0.0,
      "maxiAverage":2.8,
      "maxiData":"Apr 8th",
      "swiftBatFluxChangeProb":0.0,
      "swiftBatAverageFlux":3.5,
      "swiftBatData":"Apr 10th",
      "fermiGBMFluxChangeProb":0.0,
      "fermiGBMAveragePulsedFlux":0.0,
      "fermiGBMData":"NO DATA ",
      "combinetPlot":"PLOT",
      "collectedData":{
         "maxi":{
            "fluxChangeProbability":{
               "value":0.0,
               "action":"increment"
            },
            "averageFlux":2.8,
            "date":"Apr 8th"
         },
         "swiftBat":{
            "date":"Apr 10th",
            "fluxChangeProbability":{
               "value":0.0,
               "action":"increment"
            },
            "averageFlux":3.5
         },
         "fermiGbm":{
            "date":"NO DATA ",
            "fluxChangeProbability":{
               "value":0.0,
               "action":null
            },
            "averageFlux":0.0
         }
      },
      "Value":null,
      "Created":0
   },
   {
      "id":0,
      "name":" GS 0834-430",
      "rightAscension":128.979,
      "declination":-43.185,
      "orbitalPeriod":105.8,
      "maxiFluxChangeProb":0.0,
      "maxiAverage":6.5,
      "maxiData":"Apr 9th",
      "swiftBatFluxChangeProb":0.0,
      "swiftBatAverageFlux":10.3,
      "swiftBatData":"Apr 10th",
      "fermiGBMFluxChangeProb":0.0,
      "fermiGBMAveragePulsedFlux":0.038,
      "fermiGBMData":"Apr 8th",
      "combinetPlot":"PLOT",
      "collectedData":{
         "maxi":{
            "fluxChangeProbability":{
               "value":0.0,
               "action":"increment"
            },
            "averageFlux":6.5,
            "date":"Apr 9th"
         },
         "swiftBat":{
            "date":"Apr 10th",
            "fluxChangeProbability":{
               "value":0.0,
               "action":"increment"
            },
            "averageFlux":10.3
         },
         "fermiGbm":{
            "date":"Apr 8th",
            "fluxChangeProbability":{
               "value":0.0,
               "action":"increment"
            },
            "averageFlux":0.038
         }
      },
      "Value":null,
      "Created":0
   },
   {
      "id":0,
      "name":" 2S 1553-542",
      "rightAscension":239.454,
      "declination":-54.415,
      "orbitalPeriod":29.56,
      "maxiFluxChangeProb":4.3,
      "maxiAverage":12.9,
      "maxiData":"Apr 11th",
      "swiftBatFluxChangeProb":60.2,
      "swiftBatAverageFlux":9.2,
      "swiftBatData":"Apr 10th",
      "fermiGBMFluxChangeProb":6.1,
      "fermiGBMAveragePulsedFlux":0.129,
      "fermiGBMData":"Apr 8th",
      "combinetPlot":"PLOT",
      "collectedData":{
         "maxi":{
            "fluxChangeProbability":{
               "value":4.3,
               "action":"increment"
            },
            "averageFlux":12.9,
            "date":"Apr 11th"
         },
         "swiftBat":{
            "date":"Apr 10th",
            "fluxChangeProbability":{
               "value":60.2,
               "action":"increment"
            },
            "averageFlux":9.2
         },
         "fermiGbm":{
            "date":"Apr 8th",
            "fluxChangeProbability":{
               "value":60.2,
               "action":"increment"
            },
            "averageFlux":0.129
         }
      },
      "Value":null,
      "Created":0
   },
   {
      "id":0,
      "name":" Swift J2000.6+3210",
      "rightAscension":300.091,
      "declination":32.1898,
      "orbitalPeriod":0.0,
      "maxiFluxChangeProb":0.0,
      "maxiAverage":0.0,
      "maxiData":"NO DATA ",
      "swiftBatFluxChangeProb":0.0,
      "swiftBatAverageFlux":1.0,
      "swiftBatData":"Apr 10th",
      "fermiGBMFluxChangeProb":0.0,
      "fermiGBMAveragePulsedFlux":0.0,
      "fermiGBMData":"NO DATA ",
      "combinetPlot":"PLOT",
      "collectedData":{
         "maxi":{
            "fluxChangeProbability":{
               "value":0.0,
               "action":null
            },
            "averageFlux":0.0,
            "date":"NO DATA "
         },
         "swiftBat":{
            "date":"Apr 10th",
            "fluxChangeProbability":{
               "value":0.0,
               "action":"increment"
            },
            "averageFlux":1.0
         },
         "fermiGbm":{
            "date":"NO DATA ",
            "fluxChangeProbability":{
               "value":0.0,
               "action":null
            },
            "averageFlux":0.0
         }
      },
      "Value":null,
      "Created":0
   },
   {
      "id":0,
      "name":" GRO J1008-57",
      "rightAscension":152.442,
      "declination":-58.292,
      "orbitalPeriod":249.48,
      "maxiFluxChangeProb":0.0,
      "maxiAverage":1.3,
      "maxiData":"Apr 11th",
      "swiftBatFluxChangeProb":0.0,
      "swiftBatAverageFlux":7.5,
      "swiftBatData":"Apr 10th",
      "fermiGBMFluxChangeProb":0.0,
      "fermiGBMAveragePulsedFlux":0.104,
      "fermiGBMData":"Apr 8th",
      "combinetPlot":"PLOT",
      "collectedData":{
         "maxi":{
            "fluxChangeProbability":{
               "value":0.0,
               "action":"increment"
            },
            "averageFlux":1.3,
            "date":"Apr 11th"
         },
         "swiftBat":{
            "date":"Apr 10th",
            "fluxChangeProbability":{
               "value":0.0,
               "action":"increment"
            },
            "averageFlux":7.5
         },
         "fermiGbm":{
            "date":"Apr 8th",
            "fluxChangeProbability":{
               "value":0.0,
               "action":"increment"
            },
            "averageFlux":0.104
         }
      },
      "Value":null,
      "Created":0
   },
   {
      "id":0,
      "name":" XTE J1859+083",
      "rightAscension":284.775,
      "declination":8.25,
      "orbitalPeriod":0.0,
      "maxiFluxChangeProb":0.0,
      "maxiAverage":0.0,
      "maxiData":"NO DATA ",
      "swiftBatFluxChangeProb":42.8,
      "swiftBatAverageFlux":59.7,
      "swiftBatData":"Apr 10th",
      "fermiGBMFluxChangeProb":0.3,
      "fermiGBMAveragePulsedFlux":0.153,
      "fermiGBMData":"Apr 8th",
      "combinetPlot":"PLOT",
      "collectedData":{
         "maxi":{
            "fluxChangeProbability":{
               "value":0.0,
               "action":null
            },
            "averageFlux":0.0,
            "date":"NO DATA "
         },
         "swiftBat":{
            "date":"Apr 10th",
            "fluxChangeProbability":{
               "value":42.8,
               "action":"increment"
            },
            "averageFlux":59.7
         },
         "fermiGbm":{
            "date":"Apr 8th",
            "fluxChangeProbability":{
               "value":42.8,
               "action":"increment"
            },
            "averageFlux":0.153
         }
      },
      "Value":null,
      "Created":0
   },
   {
      "id":0,
      "name":" 1A 0535+262",
      "rightAscension":84.727,
      "declination":26.316,
      "orbitalPeriod":111.1,
      "maxiFluxChangeProb":0.0,
      "maxiAverage":5.7,
      "maxiData":"Apr 11th",
      "swiftBatFluxChangeProb":0.0,
      "swiftBatAverageFlux":4.7,
      "swiftBatData":"Apr 10th",
      "fermiGBMFluxChangeProb":0.0,
      "fermiGBMAveragePulsedFlux":0.049,
      "fermiGBMData":"Apr 7th",
      "combinetPlot":"PLOT",
      "collectedData":{
         "maxi":{
            "fluxChangeProbability":{
               "value":0.0,
               "action":"increment"
            },
            "averageFlux":5.7,
            "date":"Apr 11th"
         },
         "swiftBat":{
            "date":"Apr 10th",
            "fluxChangeProbability":{
               "value":0.0,
               "action":"increment"
            },
            "averageFlux":4.7
         },
         "fermiGbm":{
            "date":"Apr 7th",
            "fluxChangeProbability":{
               "value":0.0,
               "action":"increment"
            },
            "averageFlux":0.049
         }
      },
      "Value":null,
      "Created":0
   },
   {
      "id":0,
      "name":" GX 304-1",
      "rightAscension":195.321,
      "declination":-61.602,
      "orbitalPeriod":132.2,
      "maxiFluxChangeProb":0.0,
      "maxiAverage":2.7,
      "maxiData":"Apr 11th",
      "swiftBatFluxChangeProb":0.0,
      "swiftBatAverageFlux":-19.4,
      "swiftBatData":"Apr 10th",
      "fermiGBMFluxChangeProb":0.0,
      "fermiGBMAveragePulsedFlux":0.354,
      "fermiGBMData":"Apr 9th",
      "combinetPlot":"PLOT",
      "collectedData":{
         "maxi":{
            "fluxChangeProbability":{
               "value":0.0,
               "action":"increment"
            },
            "averageFlux":2.7,
            "date":"Apr 11th"
         },
         "swiftBat":{
            "date":"Apr 10th",
            "fluxChangeProbability":{
               "value":0.0,
               "action":"increment"
            },
            "averageFlux":-19.4
         },
         "fermiGbm":{
            "date":"Apr 9th",
            "fluxChangeProbability":{
               "value":0.0,
               "action":"increment"
            },
            "averageFlux":0.354
         }
      },
      "Value":null,
      "Created":0
   },
   {
      "id":0,
      "name":" SAX J2103.5+4545",
      "rightAscension":315.899,
      "declination":45.752,
      "orbitalPeriod":12.7,
      "maxiFluxChangeProb":0.0,
      "maxiAverage":6.4,
      "maxiData":"Mar 30th",
      "swiftBatFluxChangeProb":0.0,
      "swiftBatAverageFlux":4.7,
      "swiftBatData":"Apr 10th",
      "fermiGBMFluxChangeProb":0.0,
      "fermiGBMAveragePulsedFlux":0.067,
      "fermiGBMData":"Apr 9th",
      "combinetPlot":"PLOT",
      "collectedData":{
         "maxi":{
            "fluxChangeProbability":{
               "value":0.0,
               "action":"increment"
            },
            "averageFlux":6.4,
            "date":"Mar 30th"
         },
         "swiftBat":{
            "date":"Apr 10th",
            "fluxChangeProbability":{
               "value":0.0,
               "action":"increment"
            },
            "averageFlux":4.7
         },
         "fermiGbm":{
            "date":"Apr 9th",
            "fluxChangeProbability":{
               "value":0.0,
               "action":"increment"
            },
            "averageFlux":0.067
         }
      },
      "Value":null,
      "Created":0
   },
   {
      "id":0,
      "name":" MAXI J1409-619",
      "rightAscension":212.011,
      "declination":-61.983,
      "orbitalPeriod":0.0,
      "maxiFluxChangeProb":0.0,
      "maxiAverage":5.6,
      "maxiData":"Apr 9th",
      "swiftBatFluxChangeProb":0.0,
      "swiftBatAverageFlux":-9.2,
      "swiftBatData":"Apr 10th",
      "fermiGBMFluxChangeProb":0.0,
      "fermiGBMAveragePulsedFlux":0.117,
      "fermiGBMData":"Apr 7th",
      "combinetPlot":"PLOT",
      "collectedData":{
         "maxi":{
            "fluxChangeProbability":{
               "value":0.0,
               "action":"increment"
            },
            "averageFlux":5.6,
            "date":"Apr 9th"
         },
         "swiftBat":{
            "date":"Apr 10th",
            "fluxChangeProbability":{
               "value":0.0,
               "action":"increment"
            },
            "averageFlux":-9.2
         },
         "fermiGbm":{
            "date":"Apr 7th",
            "fluxChangeProbability":{
               "value":0.0,
               "action":"increment"
            },
            "averageFlux":0.117
         }
      },
      "Value":null,
      "Created":0
   },
   {
      "id":0,
      "name":" H 1145-619",
      "rightAscension":177.0,
      "declination":-62.207,
      "orbitalPeriod":187.5,
      "maxiFluxChangeProb":27.4,
      "maxiAverage":6.5,
      "maxiData":"Apr 11th",
      "swiftBatFluxChangeProb":0.0,
      "swiftBatAverageFlux":14.1,
      "swiftBatData":"Apr 10th",
      "fermiGBMFluxChangeProb":0.0,
      "fermiGBMAveragePulsedFlux":0.0,
      "fermiGBMData":"NO DATA ",
      "combinetPlot":"PLOT",
      "collectedData":{
         "maxi":{
            "fluxChangeProbability":{
               "value":27.4,
               "action":"increment"
            },
            "averageFlux":6.5,
            "date":"Apr 11th"
         },
         "swiftBat":{
            "date":"Apr 10th",
            "fluxChangeProbability":{
               "value":0.0,
               "action":"increment"
            },
            "averageFlux":14.1
         },
         "fermiGbm":{
            "date":"NO DATA ",
            "fluxChangeProbability":{
               "value":0.0,
               "action":null
            },
            "averageFlux":0.0
         }
      },
      "Value":null,
      "Created":0
   },
   {
      "id":0,
      "name":" IGR J13020-6359",
      "rightAscension":195.498,
      "declination":-63.968,
      "orbitalPeriod":0.0,
      "maxiFluxChangeProb":0.0,
      "maxiAverage":5.0,
      "maxiData":"Apr 9th",
      "swiftBatFluxChangeProb":0.0,
      "swiftBatAverageFlux":0.0,
      "swiftBatData":"NO DATA ",
      "fermiGBMFluxChangeProb":0.0,
      "fermiGBMAveragePulsedFlux":0.0,
      "fermiGBMData":"NO DATA ",
      "combinetPlot":"PLOT",
      "collectedData":{
         "maxi":{
            "fluxChangeProbability":{
               "value":0.0,
               "action":"increment"
            },
            "averageFlux":5.0,
            "date":"Apr 9th"
         },
         "swiftBat":{
            "date":"NO DATA ",
            "fluxChangeProbability":{
               "value":0.0,
               "action":null
            },
            "averageFlux":0.0
         },
         "fermiGbm":{
            "date":"NO DATA ",
            "fluxChangeProbability":{
               "value":0.0,
               "action":null
            },
            "averageFlux":0.0
         }
      },
      "Value":null,
      "Created":0
   },
   {
      "id":0,
      "name":" Swift J1626.6-5156",
      "rightAscension":246.65,
      "declination":-51.941,
      "orbitalPeriod":132.9,
      "maxiFluxChangeProb":0.0,
      "maxiAverage":0.0,
      "maxiData":"NO DATA ",
      "swiftBatFluxChangeProb":0.0,
      "swiftBatAverageFlux":-14.5,
      "swiftBatData":"Apr 10th",
      "fermiGBMFluxChangeProb":0.0,
      "fermiGBMAveragePulsedFlux":0.0,
      "fermiGBMData":"NO DATA ",
      "combinetPlot":"PLOT",
      "collectedData":{
         "maxi":{
            "fluxChangeProbability":{
               "value":0.0,
               "action":null
            },
            "averageFlux":0.0,
            "date":"NO DATA "
         },
         "swiftBat":{
            "date":"Apr 10th",
            "fluxChangeProbability":{
               "value":0.0,
               "action":"increment"
            },
            "averageFlux":-14.5
         },
         "fermiGbm":{
            "date":"NO DATA ",
            "fluxChangeProbability":{
               "value":0.0,
               "action":null
            },
            "averageFlux":0.0
         }
      },
      "Value":null,
      "Created":0
   },
   {
      "id":0,
      "name":" XTE J1858+034",
      "rightAscension":284.688,
      "declination":3.432,
      "orbitalPeriod":0.0,
      "maxiFluxChangeProb":0.0,
      "maxiAverage":0.8,
      "maxiData":"Apr 6th",
      "swiftBatFluxChangeProb":0.0,
      "swiftBatAverageFlux":-2.5,
      "swiftBatData":"Apr 10th",
      "fermiGBMFluxChangeProb":0.0,
      "fermiGBMAveragePulsedFlux":0.138,
      "fermiGBMData":"Apr 9th",
      "combinetPlot":"PLOT",
      "collectedData":{
         "maxi":{
            "fluxChangeProbability":{
               "value":0.0,
               "action":"increment"
            },
            "averageFlux":0.8,
            "date":"Apr 6th"
         },
         "swiftBat":{
            "date":"Apr 10th",
            "fluxChangeProbability":{
               "value":0.0,
               "action":"increment"
            },
            "averageFlux":-2.5
         },
         "fermiGbm":{
            "date":"Apr 9th",
            "fluxChangeProbability":{
               "value":0.0,
               "action":"increment"
            },
            "averageFlux":0.138
         }
      },
      "Value":null,
      "Created":0
   },
   {
      "id":0,
      "name":" 2S 1417-624",
      "rightAscension":215.303,
      "declination":-62.698,
      "orbitalPeriod":42.12,
      "maxiFluxChangeProb":0.0,
      "maxiAverage":4.2,
      "maxiData":"Apr 9th",
      "swiftBatFluxChangeProb":0.0,
      "swiftBatAverageFlux":1.3,
      "swiftBatData":"Apr 10th",
      "fermiGBMFluxChangeProb":0.0,
      "fermiGBMAveragePulsedFlux":0.08,
      "fermiGBMData":"Apr 8th",
      "combinetPlot":"PLOT",
      "collectedData":{
         "maxi":{
            "fluxChangeProbability":{
               "value":0.0,
               "action":"increment"
            },
            "averageFlux":4.2,
            "date":"Apr 9th"
         },
         "swiftBat":{
            "date":"Apr 10th",
            "fluxChangeProbability":{
               "value":0.0,
               "action":"increment"
            },
            "averageFlux":1.3
         },
         "fermiGbm":{
            "date":"Apr 8th",
            "fluxChangeProbability":{
               "value":0.0,
               "action":"increment"
            },
            "averageFlux":0.08
         }
      },
      "Value":null,
      "Created":0
   },
   {
      "id":0,
      "name":" X Per",
      "rightAscension":58.846,
      "declination":31.046,
      "orbitalPeriod":250.3,
      "maxiFluxChangeProb":93.1,
      "maxiAverage":31.3,
      "maxiData":"Apr 11th",
      "swiftBatFluxChangeProb":9.8,
      "swiftBatAverageFlux":35.8,
      "swiftBatData":"Apr 10th",
      "fermiGBMFluxChangeProb":0.0,
      "fermiGBMAveragePulsedFlux":0.0,
      "fermiGBMData":"NO DATA ",
      "combinetPlot":"PLOT",
      "collectedData":{
         "maxi":{
            "fluxChangeProbability":{
               "value":93.1,
               "action":"increment"
            },
            "averageFlux":31.3,
            "date":"Apr 11th"
         },
         "swiftBat":{
            "date":"Apr 10th",
            "fluxChangeProbability":{
               "value":9.8,
               "action":"increment"
            },
            "averageFlux":35.8
         },
         "fermiGbm":{
            "date":"NO DATA ",
            "fluxChangeProbability":{
               "value":9.8,
               "action":null
            },
            "averageFlux":0.0
         }
      },
      "Value":null,
      "Created":0
   },
   {
      "id":0,
      "name":" GRO J1750-27",
      "rightAscension":267.291,
      "declination":-26.637,
      "orbitalPeriod":29.82,
      "maxiFluxChangeProb":0.0,
      "maxiAverage":0.0,
      "maxiData":"NO DATA ",
      "swiftBatFluxChangeProb":46.8,
      "swiftBatAverageFlux":41.1,
      "swiftBatData":"Apr 10th",
      "fermiGBMFluxChangeProb":0.0,
      "fermiGBMAveragePulsedFlux":0.081,
      "fermiGBMData":"Apr 9th",
      "combinetPlot":"PLOT",
      "collectedData":{
         "maxi":{
            "fluxChangeProbability":{
               "value":0.0,
               "action":null
            },
            "averageFlux":0.0,
            "date":"NO DATA "
         },
         "swiftBat":{
            "date":"Apr 10th",
            "fluxChangeProbability":{
               "value":46.8,
               "action":"increment"
            },
            "averageFlux":41.1
         },
         "fermiGbm":{
            "date":"Apr 9th",
            "fluxChangeProbability":{
               "value":46.8,
               "action":"increment"
            },
            "averageFlux":0.081
         }
      },
      "Value":null,
      "Created":0
   },
   {
      "id":0,
      "name":" RX J0146.9+6121",
      "rightAscension":26.751,
      "declination":61.357,
      "orbitalPeriod":0.0,
      "maxiFluxChangeProb":0.0,
      "maxiAverage":0.0,
      "maxiData":"NO DATA ",
      "swiftBatFluxChangeProb":0.0,
      "swiftBatAverageFlux":-1.1,
      "swiftBatData":"Apr 10th",
      "fermiGBMFluxChangeProb":0.0,
      "fermiGBMAveragePulsedFlux":0.0,
      "fermiGBMData":"NO DATA ",
      "combinetPlot":"PLOT",
      "collectedData":{
         "maxi":{
            "fluxChangeProbability":{
               "value":0.0,
               "action":null
            },
            "averageFlux":0.0,
            "date":"NO DATA "
         },
         "swiftBat":{
            "date":"Apr 10th",
            "fluxChangeProbability":{
               "value":0.0,
               "action":"increment"
            },
            "averageFlux":-1.1
         },
         "fermiGbm":{
            "date":"NO DATA ",
            "fluxChangeProbability":{
               "value":0.0,
               "action":null
            },
            "averageFlux":0.0
         }
      },
      "Value":null,
      "Created":0
   },
   {
      "id":0,
      "name":" KS 1947+300",
      "rightAscension":297.398,
      "declination":30.209,
      "orbitalPeriod":40.4,
      "maxiFluxChangeProb":0.0,
      "maxiAverage":-2.3,
      "maxiData":"Apr 2nd",
      "swiftBatFluxChangeProb":0.0,
      "swiftBatAverageFlux":-2.2,
      "swiftBatData":"Apr 10th",
      "fermiGBMFluxChangeProb":0.0,
      "fermiGBMAveragePulsedFlux":0.123,
      "fermiGBMData":"Apr 9th",
      "combinetPlot":"PLOT",
      "collectedData":{
         "maxi":{
            "fluxChangeProbability":{
               "value":0.0,
               "action":"increment"
            },
            "averageFlux":-2.3,
            "date":"Apr 2nd"
         },
         "swiftBat":{
            "date":"Apr 10th",
            "fluxChangeProbability":{
               "value":0.0,
               "action":"increment"
            },
            "averageFlux":-2.2
         },
         "fermiGbm":{
            "date":"Apr 9th",
            "fluxChangeProbability":{
               "value":0.0,
               "action":"increment"
            },
            "averageFlux":0.123
         }
      },
      "Value":null,
      "Created":0
   },
   {
      "id":0,
      "name":" Cep X-4",
      "rightAscension":324.878,
      "declination":56.986,
      "orbitalPeriod":23.85,
      "maxiFluxChangeProb":0.0,
      "maxiAverage":9.3,
      "maxiData":"Mar 28th",
      "swiftBatFluxChangeProb":0.0,
      "swiftBatAverageFlux":1.3,
      "swiftBatData":"Apr 10th",
      "fermiGBMFluxChangeProb":0.0,
      "fermiGBMAveragePulsedFlux":0.014,
      "fermiGBMData":"Apr 8th",
      "combinetPlot":"PLOT",
      "collectedData":{
         "maxi":{
            "fluxChangeProbability":{
               "value":0.0,
               "action":"increment"
            },
            "averageFlux":9.3,
            "date":"Mar 28th"
         },
         "swiftBat":{
            "date":"Apr 10th",
            "fluxChangeProbability":{
               "value":0.0,
               "action":"increment"
            },
            "averageFlux":1.3
         },
         "fermiGbm":{
            "date":"Apr 8th",
            "fluxChangeProbability":{
               "value":0.0,
               "action":"increment"
            },
            "averageFlux":0.014
         }
      },
      "Value":null,
      "Created":0
   }
]